{
    "name": "DeviceAlert",
    "fields": [
        {
            "fieldName": "label",
            "fieldType": "String",
            "fieldValidateRules": [
                "required"
            ]
        },
        {
            "fieldName": "values",
            "fieldType": "String"
        },
        {
            "fieldName": "alertType",
            "fieldType": "AlertType",
            "fieldValues": "SUCCESS,INFO,WARNING,DANGER",
            "fieldValidateRules": [
                "required"
            ]
        },
        {
            "fieldName": "userRead",
            "fieldType": "Boolean"
        },
        {
            "fieldName": "familyRead",
            "fieldType": "Boolean"
        },
        {
            "fieldName": "organizationRead",
            "fieldType": "Boolean"
        }
    ],
    "relationships": [
        {
            "relationshipName": "device",
            "otherEntityName": "device",
            "relationshipType": "many-to-one",
            "otherEntityField": "id"
        }
    ],
    "changelogDate": "20190329142441",
    "entityTableName": "device_alert",
    "dto": "mapstruct",
    "pagination": "no",
    "service": "serviceImpl",
    "jpaMetamodelFiltering": false,
    "fluentMethods": true,
    "clientRootFolder": "",
    "applications": "*"
}