{
    "name": "SurveyData",
    "fields": [
        {
            "fieldName": "data",
            "fieldType": "byte[]",
            "fieldTypeBlobContent": "text"
        },
        {
            "fieldName": "timestamp",
            "fieldType": "Long"
        }
    ],
    "relationships": [
        {
            "relationshipType": "many-to-one",
            "relationshipName": "userExtra",
            "otherEntityName": "userExtra",
            "otherEntityField": "id",
            "otherEntityRelationshipName": "surveyData"
        }
    ],
    "changelogDate": "20190329142448",
    "entityTableName": "survey_data",
    "dto": "no",
    "pagination": "no",
    "service": "no",
    "jpaMetamodelFiltering": false,
    "fluentMethods": true,
    "clientRootFolder": "",
    "applications": "*",
    "microserviceName": "ioserver"
}
