{
    "name": "UserExtra",
    "fields": [
        {
            "fieldName": "phone",
            "fieldType": "String"
        },
        {
            "fieldName": "name",
            "fieldType": "String"
        },
        {
            "fieldName": "surname",
            "fieldType": "String"
        },
        {
            "fieldName": "address",
            "fieldType": "String"
        },
        {
            "fieldName": "birthDate",
            "fieldType": "LocalDate"
        },
        {
            "fieldName": "gender",
            "fieldType": "Gender",
            "fieldValues": "MALE,FEMALE"
        },
        {
            "fieldName": "education",
            "fieldType": "EducationType",
            "fieldValues": "NONE,PRIMARY_SCHOOL,SECONDARY_SCHOOL,TERTIARY"
        },
        {
            "fieldName": "maritalStatus",
            "fieldType": "String"
        },
        {
            "fieldName": "userIdentifier",
            "fieldType": "String",
            "fieldValidateRules": [
                "required"
            ]
        },
        {
            "fieldName": "organizationIdentifier",
            "fieldType": "String",
            "fieldValidateRules": [
                "required"
            ]
        },
        {
            "fieldName": "familyIdentifier",
            "fieldType": "String",
            "fieldValidateRules": [
                "required"
            ]
        }
    ],
    "relationships": [],
    "changelogDate": "20190807121811",
    "entityTableName": "user_extra",
    "dto": "mapstruct",
    "pagination": "no",
    "service": "serviceImpl",
    "jpaMetamodelFiltering": false,
    "fluentMethods": true,
    "clientRootFolder": "survey",
    "applications": "*"
}