id;access_token;expires_in;refresh_token;scope;token_type;user_id;created;last_sync;client_id;secret_id;last_sync_intraday
1;Incredible;75132;experiences;Incredible Frozen Shirt Gorgeous Metal Ball;Denar Avon;alarm Fantastic;2021-02-12T17:58:42;2021-02-13T08:34:36;backing up microchip azure;Licensed Metal Towels synergize Money Market Account;2021-02-13T02:38:03
2;Granite;76119;Serbia;uniform;infomediaries index;Internal;2021-02-13T03:57:09;2021-02-12T19:49:56;Direct;Architect Sri Lanka Rupee;2021-02-12T20:15:54
3;copying Program;82792;Games ADP Bedfordshire;optimal;Handmade Fresh Pants;Facilitator;2021-02-12T15:56:13;2021-02-12T23:24:55;robust users enhance;Bedfordshire tertiary National;2021-02-13T09:32:57
4;mesh Hat;68072;Sleek Fresh Salad;tan;24/7 clear-thinking Handmade;Concrete;2021-02-13T07:46:50;2021-02-13T05:38:53;Investment Account;web-enabled;2021-02-12T18:02:35
5;Hryvnia Developer Plastic;10417;Small Concrete Pizza redundant explicit;auxiliary;Handmade Metal Towels Officer;contingency Supervisor Table;2021-02-12T23:26:23;2021-02-12T20:12:08;capacitor Mobility;Investment Account Uganda Shilling ROI;2021-02-12T22:23:52
6;Automotive;29147;Intranet zero tolerance;National solutions Cape Verde Escudo;dynamic hacking;Baby invoice;2021-02-13T07:44:16;2021-02-12T20:53:02;Brand red bypass;Wooden Camp;2021-02-12T23:06:31
7;customer loyalty Mississippi radical;90367;Customer Organic next-generation;Practical Steel Salad XML;Spur Mouse Quality;well-modulated;2021-02-13T08:18:51;2021-02-13T11:10:42;Cambridgeshire;Greens;2021-02-12T21:40:45
8;North Korean Won Oregon magenta;60182;Burgs SSL;Forward;solid state portal Re-engineered;withdrawal copy Plastic;2021-02-13T07:03:44;2021-02-13T12:12:29;Future Movies;Dynamic;2021-02-12T16:42:09
9;Optimization;35779;Haven Configuration;Alley;Borders Rustic;user-centric applications Licensed;2021-02-13T06:55:36;2021-02-13T07:20:10;bricks-and-clicks French Guiana;transmitting methodologies Interactions;2021-02-13T11:37:49
10;multi-byte;63515;AGP revolutionize Tasty;connecting transitional copy;matrices toolset;Savings Account;2021-02-12T21:34:51;2021-02-13T01:32:38;Bacon;open-source;2021-02-13T11:08:04
