{
    "fluentMethods": true,
    "clientRootFolder": "ioserver",
    "relationships": [],
    "fields": [
        {
            "fieldName": "data",
            "fieldType": "byte[]",
            "fieldTypeBlobContent": "text"
        },
        {
            "fieldName": "timestamp",
            "fieldType": "Long"
        },
        {
            "fieldName": "deviceId",
            "fieldType": "Long"
        }
    ],
    "changelogDate": "20190505190359",
    "dto": "no",
    "searchEngine": false,
    "service": "serviceClass",
    "entityTableName": "watch_data",
    "databaseType": "sql",
    "jpaMetamodelFiltering": true,
    "pagination": "pagination",
    "microserviceName": "ioserver"
}
