{
    "fluentMethods": true,
    "clientRootFolder": "",
    "relationships": [
        {
            "relationshipType": "one-to-many",
            "relationshipName": "alert",
            "otherEntityName": "deviceAlert",
            "otherEntityRelationshipName": "device",
            "otherEntityRelationshipNameUndefined": false
        },
        {
            "relationshipType": "many-to-one",
            "relationshipName": "userExtra",
            "otherEntityName": "userExtra",
            "otherEntityField": "id",
            "otherEntityRelationshipName": "device",
            "otherEntityRelationshipNameUndefined": false
        }
    ],
    "fields": [
        {
            "fieldName": "name",
            "fieldType": "String",
            "fieldValidateRules": [
                "required"
            ]
        },
        {
            "fieldName": "description",
            "fieldType": "String"
        },
        {
            "fieldName": "uuid",
            "fieldType": "String",
            "fieldValidateRules": [
                "required"
            ]
        },
        {
            "fieldName": "deviceType",
            "fieldType": "DeviceType",
            "fieldValues": "WATCH,SHOE,CAMERA_FITNESS,CAMERA_MOVEMENT,FITBIT_WATCH",
            "fieldValidateRules": [
                "required"
            ]
        },
        {
            "fieldName": "active",
            "fieldType": "Boolean",
            "fieldValidateRules": [
                "required"
            ]
        },
        {
            "fieldName": "startTimestamp",
            "fieldType": "Long",
            "fieldValidateRules": []
        }
    ],
    "changelogDate": "20190329142440",
    "dto": "mapstruct",
    "searchEngine": false,
    "service": "serviceImpl",
    "entityTableName": "device",
    "databaseType": "sql",
    "jpaMetamodelFiltering": true,
    "pagination": "yes"
}
