{
    "fluentMethods": true,
    "clientRootFolder": "",
    "relationships": [],
    "fields": [
        {
            "fieldName": "userId",
            "fieldType": "Long"
        },
        {
            "fieldName": "timestamp",
            "fieldType": "Long"
        },
        {
            "fieldName": "score",
            "fieldType": "Double"
        },
        {
            "fieldName": "availableScore",
            "fieldType": "Double"
        },
        {
            "fieldName": "stepsScore",
            "fieldType": "Double"
        },
        {
            "fieldName": "ipaqScore",
            "fieldType": "Double"
        },
        {
            "fieldName": "whoqolScore",
            "fieldType": "Double"
        },
        {
            "fieldName": "feelingsScore",
            "fieldType": "Double"
        }
    ],
    "changelogDate": "20211013093238",
    "dto": "mapstruct",
    "searchEngine": false,
    "service": "serviceImpl",
    "entityTableName": "health_record",
    "databaseType": "sql",
    "jpaMetamodelFiltering": true,
    "pagination": "pagination"
}
